Design/PD_Stage.vcd
$version Generated by VerilatedVcd $end
$timescale 1ps $end
 $scope module TOP $end
  $scope module tb_PD_Stage $end
   $var wire 32 r PHT_ADDRESS [31:0] $end
   $var wire 32 r GHR_SIZE [31:0] $end
   $var wire 32 s XLEN [31:0] $end
   $var wire 32 t RAS_ADDRESS [31:0] $end
   $var wire 1 i CLK $end
   $var wire 1 j reset $end
   $var wire 1 # actual_taken $end
   $var wire 1 $ mispredict $end
   $var wire 1 % restore_ghr $end
   $var wire 1 & update_pht $end
   $var wire 1 ' restore_ras $end
   $var wire 1 ( update_btb $end
   $var wire 1 ) update_ras $end
   $var wire 1 * ex_is_ret $end
   $var wire 1 + ex_is_branch $end
   $var wire 32 , actual_target_address [31:0] $end
   $var wire 32 - actual_return_address [31:0] $end
   $var wire 32 . ex_pc [31:0] $end
   $var wire 9 / ghr_snap [8:0] $end
   $var wire 9 0 rb_pht_index [8:0] $end
   $var wire 3 u rb_sp_snap [2:0] $end
   $var wire 64 v rb_ras_snap [63:0] $end
   $var wire 1 3 pd_pred_taken1 $end
   $var wire 1 4 pd_pred_taken2 $end
   $var wire 1 5 pd_btb_hit1 $end
   $var wire 1 6 pd_btb_hit2 $end
   $var wire 32 k pd_pc [31:0] $end
   $var wire 32 7 pd_pred_target1 [31:0] $end
   $var wire 32 8 pd_pred_target2 [31:0] $end
   $var wire 9 9 pd_pht_index1 [8:0] $end
   $var wire 9 : pd_pht_index2 [8:0] $end
   $var wire 3 l pd_sp_snap [2:0] $end
   $var wire 64 m pd_ras_snap [63:0] $end
   $var wire 9 ; pd_prev_ghr [8:0] $end
   $scope module dut $end
    $var wire 32 r PHT_ADDRESS [31:0] $end
    $var wire 32 r GHR_SIZE [31:0] $end
    $var wire 32 s XLEN [31:0] $end
    $var wire 32 t RAS_ADDRESS [31:0] $end
    $var wire 1 i CLK $end
    $var wire 1 j reset $end
    $var wire 1 # actual_taken $end
    $var wire 1 $ mispredict $end
    $var wire 1 % restore_ghr $end
    $var wire 1 ' restore_ras $end
    $var wire 1 & update_pht $end
    $var wire 1 ( update_btb $end
    $var wire 1 ) update_ras $end
    $var wire 1 * ex_is_ret $end
    $var wire 1 + ex_is_branch $end
    $var wire 32 , actual_target_address [31:0] $end
    $var wire 32 - actual_return_address [31:0] $end
    $var wire 32 . ex_pc [31:0] $end
    $var wire 9 / ghr_snap [8:0] $end
    $var wire 9 0 rb_pht_index [8:0] $end
    $var wire 3 u rb_sp_snap [2:0] $end
    $var wire 64 v rb_ras_snap [63:0] $end
    $var wire 1 3 pd_pred_taken1 $end
    $var wire 1 4 pd_pred_taken2 $end
    $var wire 1 5 pd_btb_hit1 $end
    $var wire 1 6 pd_btb_hit2 $end
    $var wire 32 k pd_pc [31:0] $end
    $var wire 32 7 pd_pred_target1 [31:0] $end
    $var wire 32 8 pd_pred_target2 [31:0] $end
    $var wire 9 9 pd_pht_index1 [8:0] $end
    $var wire 9 : pd_pht_index2 [8:0] $end
    $var wire 3 l pd_sp_snap [2:0] $end
    $var wire 64 m pd_ras_snap [63:0] $end
    $var wire 9 ; pd_prev_ghr [8:0] $end
    $var wire 9 < ghr_out [8:0] $end
    $var wire 9 < prev_ghr [8:0] $end
    $var wire 9 = pht_index1 [8:0] $end
    $var wire 9 > pht_index2 [8:0] $end
    $var wire 32 ? final_pred_target1 [31:0] $end
    $var wire 32 @ final_pred_target2 [31:0] $end
    $var wire 32 A pc [31:0] $end
    $var wire 1 3 pred_taken1 $end
    $var wire 1 4 pred_taken2 $end
    $var wire 1 5 btb_hit1 $end
    $var wire 1 6 btb_hit2 $end
    $var wire 1 B is_branch1 $end
    $var wire 1 C is_branch2 $end
    $var wire 1 D is_ret1 $end
    $var wire 1 E is_ret2 $end
    $var wire 32 F pred_target1 [31:0] $end
    $var wire 32 G pred_target2 [31:0] $end
    $var wire 32 H ret_addr1 [31:0] $end
    $var wire 32 I ret_addr2 [31:0] $end
    $var wire 3 J sp_snap [2:0] $end
    $var wire 64 K ras_snap [63:0] $end
    $var wire 32 o write_pc_data [31:0] $end
    $var wire 32 p next_pc [31:0] $end
    $var wire 32 A pc1 [31:0] $end
    $var wire 32 M pc2 [31:0] $end
    $var wire 32 N always_pc [31:0] $end
    $var wire 1 q forever_loop $end
    $var wire 1 O forever_set $end
    $scope module btb_instantiation $end
     $var wire 32 x BTB_ADDRESS [31:0] $end
     $var wire 32 s XLEN [31:0] $end
     $var wire 32 y TAG_SIZE [31:0] $end
     $var wire 1 i CLK $end
     $var wire 1 j reset $end
     $var wire 1 ( update_btb $end
     $var wire 1 * ex_is_ret $end
     $var wire 1 + ex_is_branch $end
     $var wire 32 A pc1 [31:0] $end
     $var wire 32 M pc2 [31:0] $end
     $var wire 32 . ex_pc [31:0] $end
     $var wire 32 , actual_target_address [31:0] $end
     $var wire 1 5 btb_hit1 $end
     $var wire 1 6 btb_hit2 $end
     $var wire 1 D is_ret1 $end
     $var wire 1 E is_ret2 $end
     $var wire 1 B is_branch1 $end
     $var wire 1 C is_branch2 $end
     $var wire 32 F pred_target1 [31:0] $end
     $var wire 32 G pred_target2 [31:0] $end
     $var wire 59 P btb_entry1 [58:0] $end
     $var wire 59 R btb_entry2 [58:0] $end
     $var wire 1 T tag_matched1 $end
     $var wire 1 U tag_matched2 $end
     $var wire 24 V btb_tag1 [23:0] $end
     $var wire 24 W btb_tag2 [23:0] $end
     $var wire 24 X reg_btb_tag1 [23:0] $end
     $var wire 24 Y reg_btb_tag2 [23:0] $end
     $var wire 6 Z btb_index1 [5:0] $end
     $var wire 6 [ btb_index2 [5:0] $end
     $var wire 24 1 ex_tag [23:0] $end
     $var wire 6 2 ex_btb_index [5:0] $end
    $upscope $end
    $scope module ghr_instantiation $end
     $var wire 32 r GHR_SIZE [31:0] $end
     $var wire 1 i CLK $end
     $var wire 1 j reset $end
     $var wire 1 % restore_ghr $end
     $var wire 1 # actual_taken $end
     $var wire 1 3 pred_taken1 $end
     $var wire 1 4 pred_taken2 $end
     $var wire 1 B pred_branch1 $end
     $var wire 1 C pred_branch2 $end
     $var wire 9 / ghr_snap [8:0] $end
     $var wire 9 < ghr_out [8:0] $end
     $var wire 9 < prev_ghr [8:0] $end
     $var wire 1 \ pred_taken $end
    $upscope $end
    $scope module pc_instantiation $end
     $var wire 32 s XLEN [31:0] $end
     $var wire 1 i CLK $end
     $var wire 1 j reset $end
     $var wire 1 $ mispredict $end
     $var wire 1 5 btb_hit1 $end
     $var wire 1 6 btb_hit2 $end
     $var wire 1 D is_ret1 $end
     $var wire 1 E is_ret2 $end
     $var wire 1 B is_branch1 $end
     $var wire 1 C is_branch2 $end
     $var wire 1 3 pred_taken1 $end
     $var wire 1 4 pred_taken2 $end
     $var wire 32 F pred_target1 [31:0] $end
     $var wire 32 G pred_target2 [31:0] $end
     $var wire 32 H ret_addr1 [31:0] $end
     $var wire 32 I ret_addr2 [31:0] $end
     $var wire 32 , actual_target_address [31:0] $end
     $var wire 32 A pc [31:0] $end
     $var wire 32 o write_pc_data [31:0] $end
     $var wire 32 p next_pc [31:0] $end
     $var wire 32 ? final_pred_target1 [31:0] $end
     $var wire 32 @ final_pred_target2 [31:0] $end
     $var wire 1 ] is_branch_or_jump1 $end
     $var wire 1 ^ is_branch_or_jump2 $end
    $upscope $end
    $scope module pht_instantiation $end
     $var wire 32 r PHT_ADDRESS [31:0] $end
     $var wire 32 z COUNTER_SIZE [31:0] $end
     $var wire 1 i CLK $end
     $var wire 1 j reset $end
     $var wire 1 # actual_taken $end
     $var wire 1 & update_pht $end
     $var wire 9 = pht_index1 [8:0] $end
     $var wire 9 > pht_index2 [8:0] $end
     $var wire 9 0 rb_pht_index [8:0] $end
     $var wire 1 3 pred_taken1 $end
     $var wire 1 4 pred_taken2 $end
    $upscope $end
    $scope module ras_instantiation $end
     $var wire 32 t RAS_ADDRESS [31:0] $end
     $var wire 32 s XLEN [31:0] $end
     $var wire 32 { RAS_LEN [31:0] $end
     $var wire 1 i CLK $end
     $var wire 1 j reset $end
     $var wire 1 ) update_ras $end
     $var wire 1 ' restore_ras $end
     $var wire 1 D btb_is_ret1 $end
     $var wire 1 E btb_is_ret2 $end
     $var wire 32 - actual_return_address [31:0] $end
     $var wire 3 u rb_sp_snap [2:0] $end
     $var wire 64 v rb_ras_snap [63:0] $end
     $var wire 32 H ret_addr1 [31:0] $end
     $var wire 32 I ret_addr2 [31:0] $end
     $var wire 3 J sp_snap [2:0] $end
     $var wire 64 K ras_snap [63:0] $end
     $var wire 32 _ RAS[0] [31:0] $end
     $var wire 32 ` RAS[1] [31:0] $end
     $var wire 32 a RAS[2] [31:0] $end
     $var wire 32 b RAS[3] [31:0] $end
     $var wire 32 c RAS[4] [31:0] $end
     $var wire 32 d RAS[5] [31:0] $end
     $var wire 32 e RAS[6] [31:0] $end
     $var wire 32 f RAS[7] [31:0] $end
     $var wire 3 g sp [2:0] $end
     $var wire 2 h pop [1:0] $end
     $var wire 1 ) push $end
    $upscope $end
   $upscope $end
  $upscope $end
 $upscope $end
$enddefinitions $end


#0
0#
0$
0%
0&
0'
0(
0)
0*
0+
b00000000000000000000000000000000 ,
b00000000000000000000000000000000 -
b00000000000000000000000000000000 .
b000000000 /
b000000000 0
b000000000000000000000000 1
b000000 2
03
04
05
06
b00000000000000000000000000000000 7
b00000000000000000000000000000000 8
b000000000 9
b000000000 :
b000000000 ;
b000000000 <
b000000000 =
b000000001 >
b00000000000000000000000000000000 ?
b00000000000000000000000000000000 @
b00000000000000000000000000000000 A
0B
0C
0D
0E
b00000000000000000000000000000000 F
b00000000000000000000000000000000 G
b00000000000000000000000000000000 H
b00000000000000000000000000000000 I
b000 J
b0000000000000000000000000000000000000000000000000000000000000000 K
b00000000000000000000000000000100 M
b00000000000000000000000000000000 N
0O
b00000000000000000000000000000000000000000000000000000000000 P
b00000000000000000000000000000000000000000000000000000000000 R
1T
1U
b000000000000000000000000 V
b000000000000000000000000 W
b000000000000000000000000 X
b000000000000000000000000 Y
b000000 Z
b000001 [
0\
1]
1^
b00000000000000000000000000000000 _
b00000000000000000000000000000000 `
b00000000000000000000000000000000 a
b00000000000000000000000000000000 b
b00000000000000000000000000000000 c
b00000000000000000000000000000000 d
b00000000000000000000000000000000 e
b00000000000000000000000000000000 f
b000 g
b00 h
0i
1j
b00000000000000000000000000000000 k
b000 l
b0000000000000000000000000000000000000000000000000000000000000000 m
b00000000000000000000000000000000 o
b00000000000000000000000000001000 p
0q
b00000000000000000000000000001001 r
b00000000000000000000000000100000 s
b00000000000000000000000000000011 t
b000 u
b0000000000000000000000000000000000000000000000000000000000000000 v
b00000000000000000000000000000110 x
b00000000000000000000000000011000 y
b00000000000000000000000000000010 z
b00000000000000000000000000001000 {
#5
1$
1(
b00000000000000000000000000000100 ,
b01000100010001000100010001000100 -
b00000000000000000000000000000100 .
b101010101 /
b010100001 0
b000001 2
b000000001 :
b000000001 =
b000000010 >
b00000000000000000000000000000100 A
b00000000000000000000000000001000 M
b00000000000000000000000000000100 N
1O
b000001 Z
b000010 [
1i
0j
b00000000000000000000000000000100 k
b00000000000000000000000000000100 o
b00000000000000000000000000001100 p
1q
#10
0i
#15
0$
0(
b00000000010000000001000000000000 ,
b00000000000000000000000000001000 .
b000010 2
15
b000000001 9
b000000010 :
b000000011 =
b000000100 >
b00000000000000000000000000000100 ?
b00000000000000000000000000001100 A
b00000000000000000000000000000100 F
b00000000000000000000000000010000 M
b00000000000000000000000000000000000000000000000000000100100 P
b000011 Z
b000100 [
1i
0q
#20
0i
#25
05
b00000000000000000000000000000100 7
b000000011 9
b000000100 :
b00000000000000000000000000000000 ?
b00000000000000000000000000000000 F
b00000000000000000000000000000000000000000000000000000000000 P
1i
b00000000000000000000000000001100 o
b00000000000000000000000000010100 p
#30
0i
#35
b00000000000000000000000000000000 7
b000000101 =
b000000110 >
b00000000000000000000000000010100 A
b00000000000000000000000000011000 M
b000101 Z
b000110 [
1i
b00000000000000000000000000010100 o
b00000000000000000000000000011100 p
#40
0i
#45
b000000101 9
b000000110 :
b000000111 =
b000001000 >
b00000000000000000000000000011100 A
b00000000000000000000000000100000 M
b000111 Z
b001000 [
1i
b00000000000000000000000000011100 o
b00000000000000000000000000100100 p
#50
0i
#55
b000000111 9
b000001000 :
b000001001 =
b000001010 >
b00000000000000000000000000100100 A
b00000000000000000000000000101000 M
b001001 Z
b001010 [
1i
b00000000000000000000000000100100 o
b00000000000000000000000000101100 p
#60
0i
#65
b000001001 9
b000001010 :
b000001011 =
b000001100 >
b00000000000000000000000000101100 A
b00000000000000000000000000110000 M
b001011 Z
b001100 [
1i
b00000000000000000000000000101100 o
b00000000000000000000000000110100 p
#70
0i
#75
b000001011 9
b000001100 :
b000001101 =
b000001110 >
b00000000000000000000000000110100 A
b00000000000000000000000000111000 M
b001101 Z
b001110 [
1i
b00000000000000000000000000110100 o
b00000000000000000000000000111100 p
#80
0i
#85
b000001101 9
b000001110 :
b000001111 =
b000010000 >
b00000000000000000000000000111100 A
b00000000000000000000000001000000 M
b001111 Z
b010000 [
1i
b00000000000000000000000000111100 o
b00000000000000000000000001000100 p
#90
0i
#95
b000001111 9
b000010000 :
b000010001 =
b000010010 >
b00000000000000000000000001000100 A
b00000000000000000000000001001000 M
b010001 Z
b010010 [
1i
b00000000000000000000000001000100 o
b00000000000000000000000001001100 p
#100
0i
#105
b000010001 9
b000010010 :
b000010011 =
b000010100 >
b00000000000000000000000001001100 A
b00000000000000000000000001010000 M
b010011 Z
b010100 [
1i
b00000000000000000000000001001100 o
b00000000000000000000000001010100 p
#110
0i
#115
b000010011 9
b000010100 :
b000010101 =
b000010110 >
b00000000000000000000000001010100 A
b00000000000000000000000001011000 M
b010101 Z
b010110 [
1i
b00000000000000000000000001010100 o
b00000000000000000000000001011100 p
#120
0i
#125
b000010101 9
b000010110 :
b000010111 =
b000011000 >
b00000000000000000000000001011100 A
b00000000000000000000000001100000 M
b010111 Z
b011000 [
1i
b00000000000000000000000001011100 o
b00000000000000000000000001100100 p
#130
0i
#135
b000010111 9
b000011000 :
b000011001 =
b000011010 >
b00000000000000000000000001100100 A
b00000000000000000000000001101000 M
b011001 Z
b011010 [
1i
b00000000000000000000000001100100 o
b00000000000000000000000001101100 p
#140
0i
#145
b000011001 9
b000011010 :
b000011011 =
b000011100 >
b00000000000000000000000001101100 A
b00000000000000000000000001110000 M
b011011 Z
b011100 [
1i
b00000000000000000000000001101100 o
b00000000000000000000000001110100 p
#150
0i
#155
b000011011 9
b000011100 :
b000011101 =
b000011110 >
b00000000000000000000000001110100 A
b00000000000000000000000001111000 M
b011101 Z
b011110 [
1i
b00000000000000000000000001110100 o
b00000000000000000000000001111100 p
#160
0i
#165
b000011101 9
b000011110 :
b000011111 =
b000100000 >
b00000000000000000000000001111100 A
b00000000000000000000000010000000 M
b011111 Z
b100000 [
1i
b00000000000000000000000001111100 o
b00000000000000000000000010000100 p
#170
0i
#175
b000011111 9
b000100000 :
b000100001 =
b000100010 >
b00000000000000000000000010000100 A
b00000000000000000000000010001000 M
b100001 Z
b100010 [
1i
b00000000000000000000000010000100 o
b00000000000000000000000010001100 p
#180
0i
#185
b000100001 9
b000100010 :
b000100011 =
b000100100 >
b00000000000000000000000010001100 A
b00000000000000000000000010010000 M
b100011 Z
b100100 [
1i
b00000000000000000000000010001100 o
b00000000000000000000000010010100 p
#190
0i
#195
b000100011 9
b000100100 :
b000100101 =
b000100110 >
b00000000000000000000000010010100 A
b00000000000000000000000010011000 M
b100101 Z
b100110 [
1i
b00000000000000000000000010010100 o
b00000000000000000000000010011100 p
#200
0i
#205
b000100101 9
b000100110 :
b000100111 =
b000101000 >
b00000000000000000000000010011100 A
b00000000000000000000000010100000 M
b100111 Z
b101000 [
1i
b00000000000000000000000010011100 o
b00000000000000000000000010100100 p
#210
0i
#215
b000100111 9
b000101000 :
b000101001 =
b000101010 >
b00000000000000000000000010100100 A
b00000000000000000000000010101000 M
b101001 Z
b101010 [
1i
b00000000000000000000000010100100 o
b00000000000000000000000010101100 p
