Design/PD_Stage.vcd
$version Generated by VerilatedVcd $end
$timescale 1ps $end
 $scope module TOP $end
  $scope module tb_PD_Stage $end
   $var wire 32 o PHT_ADDRESS [31:0] $end
   $var wire 32 o GHR_SIZE [31:0] $end
   $var wire 32 p XLEN [31:0] $end
   $var wire 32 q RAS_ADDRESS [31:0] $end
   $var wire 1 j CLK $end
   $var wire 1 k reset $end
   $var wire 1 # actual_taken $end
   $var wire 1 $ mispredict $end
   $var wire 1 % restore_ghr $end
   $var wire 1 & update_pht $end
   $var wire 1 ' restore_ras $end
   $var wire 1 ( update_btb $end
   $var wire 1 ) update_ras $end
   $var wire 1 * ex_is_ret $end
   $var wire 1 + ex_is_branch $end
   $var wire 32 , actual_target_address [31:0] $end
   $var wire 32 - actual_return_address [31:0] $end
   $var wire 32 . ex_pc [31:0] $end
   $var wire 9 / ghr_snap [8:0] $end
   $var wire 9 0 rb_pht_index [8:0] $end
   $var wire 3 r rb_sp_snap [2:0] $end
   $var wire 64 s rb_ras_snap [63:0] $end
   $var wire 1 = pd_pred_taken1 $end
   $var wire 1 > pd_pred_taken2 $end
   $var wire 1 ? pd_btb_hit1 $end
   $var wire 1 @ pd_btb_hit2 $end
   $var wire 32 3 pd_pc [31:0] $end
   $var wire 32 A pd_pred_target1 [31:0] $end
   $var wire 32 B pd_pred_target2 [31:0] $end
   $var wire 9 C pd_pht_index1 [8:0] $end
   $var wire 9 D pd_pht_index2 [8:0] $end
   $var wire 3 l pd_sp_snap [2:0] $end
   $var wire 64 m pd_ras_snap [63:0] $end
   $var wire 9 E pd_prev_ghr [8:0] $end
   $scope module dut $end
    $var wire 32 o PHT_ADDRESS [31:0] $end
    $var wire 32 o GHR_SIZE [31:0] $end
    $var wire 32 p XLEN [31:0] $end
    $var wire 32 q RAS_ADDRESS [31:0] $end
    $var wire 1 j CLK $end
    $var wire 1 k reset $end
    $var wire 1 # actual_taken $end
    $var wire 1 $ mispredict $end
    $var wire 1 % restore_ghr $end
    $var wire 1 ' restore_ras $end
    $var wire 1 & update_pht $end
    $var wire 1 ( update_btb $end
    $var wire 1 ) update_ras $end
    $var wire 1 * ex_is_ret $end
    $var wire 1 + ex_is_branch $end
    $var wire 32 , actual_target_address [31:0] $end
    $var wire 32 - actual_return_address [31:0] $end
    $var wire 32 . ex_pc [31:0] $end
    $var wire 9 / ghr_snap [8:0] $end
    $var wire 9 0 rb_pht_index [8:0] $end
    $var wire 3 r rb_sp_snap [2:0] $end
    $var wire 64 s rb_ras_snap [63:0] $end
    $var wire 1 = pd_pred_taken1 $end
    $var wire 1 > pd_pred_taken2 $end
    $var wire 1 ? pd_btb_hit1 $end
    $var wire 1 @ pd_btb_hit2 $end
    $var wire 32 3 pd_pc [31:0] $end
    $var wire 32 A pd_pred_target1 [31:0] $end
    $var wire 32 B pd_pred_target2 [31:0] $end
    $var wire 9 C pd_pht_index1 [8:0] $end
    $var wire 9 D pd_pht_index2 [8:0] $end
    $var wire 3 l pd_sp_snap [2:0] $end
    $var wire 64 m pd_ras_snap [63:0] $end
    $var wire 9 E pd_prev_ghr [8:0] $end
    $var wire 9 F ghr_out [8:0] $end
    $var wire 9 F prev_ghr [8:0] $end
    $var wire 9 4 pht_index1 [8:0] $end
    $var wire 9 5 pht_index2 [8:0] $end
    $var wire 32 G final_pred_target1 [31:0] $end
    $var wire 32 H final_pred_target2 [31:0] $end
    $var wire 32 I pc [31:0] $end
    $var wire 1 = pred_taken1 $end
    $var wire 1 > pred_taken2 $end
    $var wire 1 ? btb_hit1 $end
    $var wire 1 @ btb_hit2 $end
    $var wire 1 J is_branch1 $end
    $var wire 1 K is_branch2 $end
    $var wire 1 L is_ret1 $end
    $var wire 1 M is_ret2 $end
    $var wire 32 N pred_target1 [31:0] $end
    $var wire 32 O pred_target2 [31:0] $end
    $var wire 32 P ret_addr1 [31:0] $end
    $var wire 32 Q ret_addr2 [31:0] $end
    $var wire 3 R sp_snap [2:0] $end
    $var wire 64 S ras_snap [63:0] $end
    $var wire 32 6 write_pc_data [31:0] $end
    $var wire 32 7 next_pc [31:0] $end
    $var wire 32 3 pc1 [31:0] $end
    $var wire 32 8 pc2 [31:0] $end
    $scope module btb_instantiation $end
     $var wire 32 u BTB_ADDRESS [31:0] $end
     $var wire 32 p XLEN [31:0] $end
     $var wire 32 v TAG_SIZE [31:0] $end
     $var wire 1 j CLK $end
     $var wire 1 k reset $end
     $var wire 1 ( update_btb $end
     $var wire 1 * ex_is_ret $end
     $var wire 1 + ex_is_branch $end
     $var wire 32 3 pc1 [31:0] $end
     $var wire 32 8 pc2 [31:0] $end
     $var wire 32 . ex_pc [31:0] $end
     $var wire 32 , actual_target_address [31:0] $end
     $var wire 1 ? btb_hit1 $end
     $var wire 1 @ btb_hit2 $end
     $var wire 1 L is_ret1 $end
     $var wire 1 M is_ret2 $end
     $var wire 1 J is_branch1 $end
     $var wire 1 K is_branch2 $end
     $var wire 32 N pred_target1 [31:0] $end
     $var wire 32 O pred_target2 [31:0] $end
     $var wire 59 U btb_entry1 [58:0] $end
     $var wire 59 W btb_entry2 [58:0] $end
     $var wire 1 Y tag_matched1 $end
     $var wire 1 Z tag_matched2 $end
     $var wire 24 9 btb_tag1 [23:0] $end
     $var wire 24 : btb_tag2 [23:0] $end
     $var wire 24 [ reg_btb_tag1 [23:0] $end
     $var wire 24 \ reg_btb_tag2 [23:0] $end
     $var wire 6 ; btb_index1 [5:0] $end
     $var wire 6 < btb_index2 [5:0] $end
     $var wire 24 1 ex_tag [23:0] $end
     $var wire 6 2 ex_btb_index [5:0] $end
    $upscope $end
    $scope module ghr_instantiation $end
     $var wire 32 o GHR_SIZE [31:0] $end
     $var wire 1 j CLK $end
     $var wire 1 k reset $end
     $var wire 1 % restore_ghr $end
     $var wire 1 # actual_taken $end
     $var wire 1 = pred_taken1 $end
     $var wire 1 > pred_taken2 $end
     $var wire 1 J pred_branch1 $end
     $var wire 1 K pred_branch2 $end
     $var wire 9 / ghr_snap [8:0] $end
     $var wire 9 F ghr_out [8:0] $end
     $var wire 9 F prev_ghr [8:0] $end
     $var wire 1 ] pred_taken $end
    $upscope $end
    $scope module pc_instantiation $end
     $var wire 32 p XLEN [31:0] $end
     $var wire 1 j CLK $end
     $var wire 1 k reset $end
     $var wire 1 $ mispredict $end
     $var wire 1 ? btb_hit1 $end
     $var wire 1 @ btb_hit2 $end
     $var wire 1 L is_ret1 $end
     $var wire 1 M is_ret2 $end
     $var wire 1 J is_branch1 $end
     $var wire 1 K is_branch2 $end
     $var wire 1 = pred_taken1 $end
     $var wire 1 > pred_taken2 $end
     $var wire 32 N pred_target1 [31:0] $end
     $var wire 32 O pred_target2 [31:0] $end
     $var wire 32 P ret_addr1 [31:0] $end
     $var wire 32 Q ret_addr2 [31:0] $end
     $var wire 32 , actual_target_address [31:0] $end
     $var wire 32 I pc [31:0] $end
     $var wire 32 6 write_pc_data [31:0] $end
     $var wire 32 7 next_pc [31:0] $end
     $var wire 32 G final_pred_target1 [31:0] $end
     $var wire 32 H final_pred_target2 [31:0] $end
     $var wire 1 ^ is_branch_or_jump1 $end
     $var wire 1 _ is_branch_or_jump2 $end
    $upscope $end
    $scope module pht_instantiation $end
     $var wire 32 o PHT_ADDRESS [31:0] $end
     $var wire 32 w COUNTER_SIZE [31:0] $end
     $var wire 1 j CLK $end
     $var wire 1 k reset $end
     $var wire 1 # actual_taken $end
     $var wire 1 & update_pht $end
     $var wire 9 4 pht_index1 [8:0] $end
     $var wire 9 5 pht_index2 [8:0] $end
     $var wire 9 0 rb_pht_index [8:0] $end
     $var wire 1 = pred_taken1 $end
     $var wire 1 > pred_taken2 $end
    $upscope $end
    $scope module ras_instantiation $end
     $var wire 32 q RAS_ADDRESS [31:0] $end
     $var wire 32 p XLEN [31:0] $end
     $var wire 32 x RAS_LEN [31:0] $end
     $var wire 1 j CLK $end
     $var wire 1 k reset $end
     $var wire 1 ) update_ras $end
     $var wire 1 ' restore_ras $end
     $var wire 1 L btb_is_ret1 $end
     $var wire 1 M btb_is_ret2 $end
     $var wire 32 - actual_return_address [31:0] $end
     $var wire 3 r rb_sp_snap [2:0] $end
     $var wire 64 s rb_ras_snap [63:0] $end
     $var wire 32 P ret_addr1 [31:0] $end
     $var wire 32 Q ret_addr2 [31:0] $end
     $var wire 3 R sp_snap [2:0] $end
     $var wire 64 S ras_snap [63:0] $end
     $var wire 32 ` RAS[0] [31:0] $end
     $var wire 32 a RAS[1] [31:0] $end
     $var wire 32 b RAS[2] [31:0] $end
     $var wire 32 c RAS[3] [31:0] $end
     $var wire 32 d RAS[4] [31:0] $end
     $var wire 32 e RAS[5] [31:0] $end
     $var wire 32 f RAS[6] [31:0] $end
     $var wire 32 g RAS[7] [31:0] $end
     $var wire 3 h sp [2:0] $end
     $var wire 2 i pop [1:0] $end
     $var wire 1 ) push $end
    $upscope $end
   $upscope $end
  $upscope $end
 $upscope $end
$enddefinitions $end


#0
0#
0$
0%
0&
0'
0(
0)
0*
0+
b00000000000000000000000000000000 ,
b00000000000000000000000000000000 -
b00000000000000000000000000000000 .
b000000000 /
b000000000 0
b000000000000000000000000 1
b000000 2
b00000000000000000000000000000000 3
b000000000 4
b000000001 5
b00000000000000000000000000000000 6
b00000000000000000000000000001000 7
b00000000000000000000000000000100 8
b000000000000000000000000 9
b000000000000000000000000 :
b000000 ;
b000001 <
0=
0>
0?
0@
b00000000000000000000000000000000 A
b00000000000000000000000000000000 B
b000000000 C
b000000000 D
b000000000 E
b000000000 F
b00000000000000000000000000000000 G
b00000000000000000000000000000000 H
b00000000000000000000000000000000 I
0J
0K
0L
0M
b00000000000000000000000000000000 N
b00000000000000000000000000000000 O
b00000000000000000000000000000000 P
b00000000000000000000000000000000 Q
b000 R
b0000000000000000000000000000000000000000000000000000000000000000 S
b00000000000000000000000000000000000000000000000000000000000 U
b00000000000000000000000000000000000000000000000000000000000 W
1Y
1Z
b000000000000000000000000 [
b000000000000000000000000 \
0]
1^
1_
b00000000000000000000000000000000 `
b00000000000000000000000000000000 a
b00000000000000000000000000000000 b
b00000000000000000000000000000000 c
b00000000000000000000000000000000 d
b00000000000000000000000000000000 e
b00000000000000000000000000000000 f
b00000000000000000000000000000000 g
b000 h
b00 i
0j
1k
b000 l
b0000000000000000000000000000000000000000000000000000000000000000 m
b00000000000000000000000000001001 o
b00000000000000000000000000100000 p
b00000000000000000000000000000011 q
b000 r
b0000000000000000000000000000000000000000000000000000000000000000 s
b00000000000000000000000000000110 u
b00000000000000000000000000011000 v
b00000000000000000000000000000010 w
b00000000000000000000000000001000 x
#5
1#
1$
1(
b00000000000000000000000000001000 ,
b01000100010001000100010001000100 -
b00000000000000000000000000010000 .
b101010101 /
b010100001 0
b000100 2
b00000000000000000000000000001000 3
b000000010 4
b000000011 5
b00000000000000000000000000001000 6
b00000000000000000000000000010000 7
b00000000000000000000000000001100 8
b000010 ;
b000011 <
b000000010 C
b000000011 D
b00000000000000000000000000001000 I
1j
0k
#10
0j
#15
0$
0(
b00000000000000000000000000010000 3
b000000100 4
b000000101 5
b00000000000000000000000000010000 6
b00000000000000000000000000011000 7
b00000000000000000000000000010100 8
b000100 ;
b000101 <
b00000000000000000000000000010000 I
1j
#20
0j
#25
b00000000000000000000000000001000 3
b000000010 4
b000000011 5
b00000000000000000000000000001000 6
b00000000000000000000000000010000 7
b00000000000000000000000000001100 8
b000010 ;
b000011 <
1?
b000000100 C
b000000101 D
b00000000000000000000000000001000 G
b00000000000000000000000000011000 I
b00000000000000000000000000001000 N
b00000000000000000000000000000000000000000000000000001000100 U
1j
#30
0j
#35
b00000000000000000000000000010000 3
b000000100 4
b000000101 5
b00000000000000000000000000010000 6
b00000000000000000000000000011000 7
b00000000000000000000000000010100 8
b000100 ;
b000101 <
0?
b00000000000000000000000000001000 A
b000000010 C
b000000011 D
b00000000000000000000000000000000 G
b00000000000000000000000000010000 I
b00000000000000000000000000000000 N
b00000000000000000000000000000000000000000000000000000000000 U
1j
#40
0j
#45
b00000000000000000000000000001000 3
b000000010 4
b000000011 5
b00000000000000000000000000001000 6
b00000000000000000000000000010000 7
b00000000000000000000000000001100 8
b000010 ;
b000011 <
1?
b00000000000000000000000000000000 A
b000000100 C
b000000101 D
b00000000000000000000000000001000 G
b00000000000000000000000000011000 I
b00000000000000000000000000001000 N
b00000000000000000000000000000000000000000000000000001000100 U
1j
#50
0j
#55
b00000000000000000000000000010000 3
b000000100 4
b000000101 5
b00000000000000000000000000010000 6
b00000000000000000000000000011000 7
b00000000000000000000000000010100 8
b000100 ;
b000101 <
0?
b00000000000000000000000000001000 A
b000000010 C
b000000011 D
b00000000000000000000000000000000 G
b00000000000000000000000000010000 I
b00000000000000000000000000000000 N
b00000000000000000000000000000000000000000000000000000000000 U
1j
#60
0j
#65
b00000000000000000000000000001000 3
b000000010 4
b000000011 5
b00000000000000000000000000001000 6
b00000000000000000000000000010000 7
b00000000000000000000000000001100 8
b000010 ;
b000011 <
1?
b00000000000000000000000000000000 A
b000000100 C
b000000101 D
b00000000000000000000000000001000 G
b00000000000000000000000000011000 I
b00000000000000000000000000001000 N
b00000000000000000000000000000000000000000000000000001000100 U
1j
#70
0j
#75
b00000000000000000000000000010000 3
b000000100 4
b000000101 5
b00000000000000000000000000010000 6
b00000000000000000000000000011000 7
b00000000000000000000000000010100 8
b000100 ;
b000101 <
0?
b00000000000000000000000000001000 A
b000000010 C
b000000011 D
b00000000000000000000000000000000 G
b00000000000000000000000000010000 I
b00000000000000000000000000000000 N
b00000000000000000000000000000000000000000000000000000000000 U
1j
#80
0j
#85
b00000000000000000000000000001000 3
b000000010 4
b000000011 5
b00000000000000000000000000001000 6
b00000000000000000000000000010000 7
b00000000000000000000000000001100 8
b000010 ;
b000011 <
1?
b00000000000000000000000000000000 A
b000000100 C
b000000101 D
b00000000000000000000000000001000 G
b00000000000000000000000000011000 I
b00000000000000000000000000001000 N
b00000000000000000000000000000000000000000000000000001000100 U
1j
#90
0j
#95
b00000000000000000000000000010000 3
b000000100 4
b000000101 5
b00000000000000000000000000010000 6
b00000000000000000000000000011000 7
b00000000000000000000000000010100 8
b000100 ;
b000101 <
0?
b00000000000000000000000000001000 A
b000000010 C
b000000011 D
b00000000000000000000000000000000 G
b00000000000000000000000000010000 I
b00000000000000000000000000000000 N
b00000000000000000000000000000000000000000000000000000000000 U
1j
#100
0j
#105
b00000000000000000000000000001000 3
b000000010 4
b000000011 5
b00000000000000000000000000001000 6
b00000000000000000000000000010000 7
b00000000000000000000000000001100 8
b000010 ;
b000011 <
1?
b00000000000000000000000000000000 A
b000000100 C
b000000101 D
b00000000000000000000000000001000 G
b00000000000000000000000000011000 I
b00000000000000000000000000001000 N
b00000000000000000000000000000000000000000000000000001000100 U
1j
#110
0j
#115
b00000000000000000000000000010000 3
b000000100 4
b000000101 5
b00000000000000000000000000010000 6
b00000000000000000000000000011000 7
b00000000000000000000000000010100 8
b000100 ;
b000101 <
0?
b00000000000000000000000000001000 A
b000000010 C
b000000011 D
b00000000000000000000000000000000 G
b00000000000000000000000000010000 I
b00000000000000000000000000000000 N
b00000000000000000000000000000000000000000000000000000000000 U
1j
#120
0j
#125
b00000000000000000000000000001000 3
b000000010 4
b000000011 5
b00000000000000000000000000001000 6
b00000000000000000000000000010000 7
b00000000000000000000000000001100 8
b000010 ;
b000011 <
1?
b00000000000000000000000000000000 A
b000000100 C
b000000101 D
b00000000000000000000000000001000 G
b00000000000000000000000000011000 I
b00000000000000000000000000001000 N
b00000000000000000000000000000000000000000000000000001000100 U
1j
#130
0j
#135
b00000000000000000000000000010000 3
b000000100 4
b000000101 5
b00000000000000000000000000010000 6
b00000000000000000000000000011000 7
b00000000000000000000000000010100 8
b000100 ;
b000101 <
0?
b00000000000000000000000000001000 A
b000000010 C
b000000011 D
b00000000000000000000000000000000 G
b00000000000000000000000000010000 I
b00000000000000000000000000000000 N
b00000000000000000000000000000000000000000000000000000000000 U
1j
#140
0j
#145
b00000000000000000000000000001000 3
b000000010 4
b000000011 5
b00000000000000000000000000001000 6
b00000000000000000000000000010000 7
b00000000000000000000000000001100 8
b000010 ;
b000011 <
1?
b00000000000000000000000000000000 A
b000000100 C
b000000101 D
b00000000000000000000000000001000 G
b00000000000000000000000000011000 I
b00000000000000000000000000001000 N
b00000000000000000000000000000000000000000000000000001000100 U
1j
#150
0j
#155
b00000000000000000000000000010000 3
b000000100 4
b000000101 5
b00000000000000000000000000010000 6
b00000000000000000000000000011000 7
b00000000000000000000000000010100 8
b000100 ;
b000101 <
0?
b00000000000000000000000000001000 A
b000000010 C
b000000011 D
b00000000000000000000000000000000 G
b00000000000000000000000000010000 I
b00000000000000000000000000000000 N
b00000000000000000000000000000000000000000000000000000000000 U
1j
#160
0j
#165
b00000000000000000000000000001000 3
b000000010 4
b000000011 5
b00000000000000000000000000001000 6
b00000000000000000000000000010000 7
b00000000000000000000000000001100 8
b000010 ;
b000011 <
1?
b00000000000000000000000000000000 A
b000000100 C
b000000101 D
b00000000000000000000000000001000 G
b00000000000000000000000000011000 I
b00000000000000000000000000001000 N
b00000000000000000000000000000000000000000000000000001000100 U
1j
#170
0j
#175
b00000000000000000000000000010000 3
b000000100 4
b000000101 5
b00000000000000000000000000010000 6
b00000000000000000000000000011000 7
b00000000000000000000000000010100 8
b000100 ;
b000101 <
0?
b00000000000000000000000000001000 A
b000000010 C
b000000011 D
b00000000000000000000000000000000 G
b00000000000000000000000000010000 I
b00000000000000000000000000000000 N
b00000000000000000000000000000000000000000000000000000000000 U
1j
#180
0j
#185
b00000000000000000000000000001000 3
b000000010 4
b000000011 5
b00000000000000000000000000001000 6
b00000000000000000000000000010000 7
b00000000000000000000000000001100 8
b000010 ;
b000011 <
1?
b00000000000000000000000000000000 A
b000000100 C
b000000101 D
b00000000000000000000000000001000 G
b00000000000000000000000000011000 I
b00000000000000000000000000001000 N
b00000000000000000000000000000000000000000000000000001000100 U
1j
#190
0j
#195
b00000000000000000000000000010000 3
b000000100 4
b000000101 5
b00000000000000000000000000010000 6
b00000000000000000000000000011000 7
b00000000000000000000000000010100 8
b000100 ;
b000101 <
0?
b00000000000000000000000000001000 A
b000000010 C
b000000011 D
b00000000000000000000000000000000 G
b00000000000000000000000000010000 I
b00000000000000000000000000000000 N
b00000000000000000000000000000000000000000000000000000000000 U
1j
#200
0j
#205
b00000000000000000000000000001000 3
b000000010 4
b000000011 5
b00000000000000000000000000001000 6
b00000000000000000000000000010000 7
b00000000000000000000000000001100 8
b000010 ;
b000011 <
1?
b00000000000000000000000000000000 A
b000000100 C
b000000101 D
b00000000000000000000000000001000 G
b00000000000000000000000000011000 I
b00000000000000000000000000001000 N
b00000000000000000000000000000000000000000000000000001000100 U
1j
#210
0j
#215
b00000000000000000000000000010000 3
b000000100 4
b000000101 5
b00000000000000000000000000010000 6
b00000000000000000000000000011000 7
b00000000000000000000000000010100 8
b000100 ;
b000101 <
0?
b00000000000000000000000000001000 A
b000000010 C
b000000011 D
b00000000000000000000000000000000 G
b00000000000000000000000000010000 I
b00000000000000000000000000000000 N
b00000000000000000000000000000000000000000000000000000000000 U
1j
#220
0j
#225
b00000000000000000000000000001000 3
b000000010 4
b000000011 5
b00000000000000000000000000001000 6
b00000000000000000000000000010000 7
b00000000000000000000000000001100 8
b000010 ;
b000011 <
1?
b00000000000000000000000000000000 A
b000000100 C
b000000101 D
b00000000000000000000000000001000 G
b00000000000000000000000000011000 I
b00000000000000000000000000001000 N
b00000000000000000000000000000000000000000000000000001000100 U
1j
